<svg width="24" height="24" viewBox="0 0 24 24" fill="none" xmlns="http://www.w3.org/2000/svg">
<path d="M12 5V19" stroke="#E4051D" stroke-width="2" stroke-linecap="round" stroke-linejoin="round"/>
<path d="M7 13L12 19L17 13" stroke="#E4051D" stroke-width="2" stroke-linecap="round" stroke-linejoin="round"/>
</svg>
