<svg width="22" height="22" viewBox="0 0 22 22" fill="none" xmlns="http://www.w3.org/2000/svg">
<path d="M9 5.5L10 14.5" stroke="black"/>
<path d="M6 9.5C5.72386 9.5 5.5 9.72386 5.5 10C5.5 10.2761 5.72386 10.5 6 10.5V9.5ZM20.8766 6.61043L21.3736 6.66565L20.8766 6.61043ZM17.4012 6.38957L16.9042 6.33435L17.4012 6.38957ZM13 5.5V13.5H14V5.5H13ZM14.5 15H15.605V14H14.5V15ZM17.0958 13.6656L17.8981 6.44478L16.9042 6.33435L16.1019 13.5552L17.0958 13.6656ZM18.395 6H19.8827V5H18.395V6ZM20.3797 6.55522L20.1019 9.05522L21.0958 9.16565L21.3736 6.66565L20.3797 6.55522ZM19.605 9.5H6V10.5H19.605V9.5ZM20.1019 9.05522C20.0738 9.30843 19.8597 9.5 19.605 9.5V10.5C20.3693 10.5 21.0114 9.9253 21.0958 9.16565L20.1019 9.05522ZM19.8827 6C20.1807 6 20.4126 6.25903 20.3797 6.55522L21.3736 6.66565C21.4723 5.7771 20.7768 5 19.8827 5V6ZM17.8981 6.44478C17.9262 6.19157 18.1403 6 18.395 6V5C17.6307 5 16.9886 5.5747 16.9042 6.33435L17.8981 6.44478ZM15.605 15C16.3693 15 17.0114 14.4253 17.0958 13.6656L16.1019 13.5552C16.0738 13.8084 15.8597 14 15.605 14V15ZM13 13.5C13 14.3284 13.6716 15 14.5 15V14C14.2239 14 14 13.7761 14 13.5H13Z" fill="black"/>
<path d="M19.5 15.25C19.9142 15.25 20.25 14.9142 20.25 14.5C20.25 14.0858 19.9142 13.75 19.5 13.75V15.25ZM19.5 13.75H6.75V15.25H19.5V13.75ZM6.75 18.75H20V17.25H6.75V18.75ZM4.25 16.25C4.25 17.6307 5.36929 18.75 6.75 18.75V17.25C6.19772 17.25 5.75 16.8023 5.75 16.25H4.25ZM6.75 13.75C5.36929 13.75 4.25 14.8693 4.25 16.25H5.75C5.75 15.6977 6.19772 15.25 6.75 15.25V13.75Z" fill="black"/>
<path d="M0 1H3.19783C3.66653 1 4.07234 1.32553 4.17402 1.78307L5 5.5M5 5.5L6.82598 13.7169C6.92766 14.1745 7.33347 14.5 7.80217 14.5H18.6978C19.1665 14.5 19.5723 14.1745 19.674 13.7169L21.2296 6.71693C21.3684 6.09242 20.8931 5.5 20.2534 5.5H5Z" stroke="black" stroke-width="1.5"/>
<circle cx="9.5" cy="19.5" r="1.5" stroke="black" stroke-width="1.5"/>
<circle cx="16.5" cy="19.5" r="1.5" stroke="black" stroke-width="1.5"/>
</svg>
