<svg width="34" height="34" viewBox="0 0 34 34" fill="none" xmlns="http://www.w3.org/2000/svg">
<path d="M27 6V2.42133C27 2.31594 26.858 2.28225 26.8107 2.3764L25 5.976" stroke="white" stroke-width="2" stroke-linecap="round"/>
<path d="M32.5 9L30.934 8.6683C30.2786 8.52947 29.7104 8.12425 29.3657 7.54975V7.54975C29.0889 7.08834 28.6657 6.73277 28.1635 6.53961L27.5763 6.31378C27.0907 6.12702 26.5749 6.03125 26.0547 6.03125H25.1004C24.5466 6.03125 23.9986 6.1437 23.4896 6.3618V6.3618C22.5327 6.77176 21.7682 7.53115 21.3517 8.48522L21.2625 8.6895C21.0063 9.2766 20.874 9.91029 20.874 10.5509V12.0543C20.874 12.9524 20.5374 13.8178 19.9305 14.4799V14.4799C19.3921 15.0673 18.6734 15.4588 17.8879 15.5928L15.5 16L15.2151 16.0814C13.1732 16.6648 11.4853 18.1062 10.5894 20.0317V20.0317C10.1394 20.9989 9.90625 22.0527 9.90625 23.1195V30.7087" stroke="white" stroke-width="2" stroke-linecap="round"/>
<path d="M15 21.5169L16.1559 21.5164C17.4524 21.5159 18.6262 22.2833 19.1458 23.4711L19.1845 23.5595C19.3394 23.9135 19.4194 24.2958 19.4194 24.6822V25.8705C19.4194 26.7612 20.1415 27.4834 21.0323 27.4834V27.4834C21.923 27.4834 22.6452 28.2055 22.6452 29.0963V29.4995C22.6452 30.613 21.7425 31.5156 20.629 31.5156H6.1301C5.03473 31.5156 3.98422 31.0805 3.20968 30.3059L2.9124 30.0087C2.3282 29.4245 2 28.6321 2 27.8059V27.7702C2 26.9669 2.3191 26.1965 2.8871 25.6285V25.6285C3.4551 25.0605 4.22547 24.7414 5.02874 24.7414H6.35484" stroke="white" stroke-width="2" stroke-linecap="round"/>
<path d="M32.5 9L32.2241 10.931C32.0834 11.916 31.4769 12.7728 30.5947 13.2328V13.2328C29.5742 13.765 28.9342 14.8204 28.9342 15.9713V17.6829C28.9342 18.51 28.7607 19.3279 28.4247 20.0837L27.496 22.1733C27.1681 22.911 26.9987 23.7093 26.9987 24.5166V26.4035C26.9987 27.0827 27.3267 27.72 27.8794 28.1148L28.1579 28.3138C28.7995 28.772 29.0354 29.6152 28.7249 30.3399V30.3399C28.4605 30.9568 27.8539 31.3567 27.1828 31.3567H26.1923C25.2785 31.3567 24.418 30.9265 23.8697 30.1954V30.1954C23.4928 29.6929 23.2891 29.0817 23.2891 28.4535V22.1632" stroke="white" stroke-width="2" stroke-linecap="round"/>
</svg>
