<svg width="34" height="34" viewBox="0 0 34 34" fill="none" xmlns="http://www.w3.org/2000/svg">
<path d="M11.8672 22.1328H12.3334C13.7237 22.1328 14.9545 23.0316 15.3778 24.3558V24.3558C15.4784 24.6704 15.5296 24.9987 15.5296 25.329V26.9152C15.5296 27.1113 15.6282 27.2944 15.792 27.4022L17.2755 28.3794C17.4982 28.5261 17.7027 28.6986 17.8847 28.8935V28.8935C18.2312 29.2643 18.4895 29.7086 18.6404 30.1931L18.8914 30.999" stroke="white" stroke-width="2" stroke-linecap="round"/>
<path d="M31.0007 5.79883V7.84856C31.0007 8.79432 30.5214 9.67566 29.7276 10.1898V10.1898C29.276 10.4822 28.7495 10.6378 28.2114 10.6378H26.3072C25.915 10.6378 25.597 10.9558 25.597 11.348V15.4955C25.597 18.2818 24.4407 20.9432 22.404 22.8447L22.3321 22.9118C21.9079 23.3078 21.6671 23.862 21.6671 24.4423V26.0573C21.6671 26.4521 22.0119 26.7584 22.404 26.7118V26.7118C24.103 26.5101 25.597 27.8372 25.597 29.5482V30.2047C25.597 30.6431 25.2417 30.9985 24.8033 30.9985H6.30661C5.44624 30.9985 4.61975 30.6631 4.00262 30.0636L3.95947 30.0217C3.3461 29.4259 3 28.6071 3 27.752V27.752C3 27.3487 3.32693 27.0218 3.73023 27.0218H4.63747V27.0218C6.71747 27.0218 8.40364 28.708 8.40364 30.788V30.9985V22.925C8.40364 21.2269 8.80908 19.5532 9.58623 18.0434L9.65606 17.9077C9.69428 17.8334 9.74157 17.7642 9.79683 17.7016L10.3955 17.023C11.2434 16.0621 12.2635 15.2681 13.4031 14.682V14.682C14.1024 14.3224 14.724 13.8286 15.2325 13.2288L16.7547 11.4332" stroke="white" stroke-width="2" stroke-linecap="round"/>
<path d="M30.9998 5.54914H28.881C27.7581 5.54914 26.6844 5.0884 25.9107 4.27457V4.27457C25.137 3.46074 24.0633 3 22.9404 3H22.0989C20.6593 3 19.2776 3.56669 18.2526 4.5775L17.859 4.96565C17.067 5.74671 16.6211 6.81265 16.6211 7.92502V9.57714C16.6211 10.9602 17.7422 12.0813 19.1253 12.0813V12.0813C20.5083 12.0813 21.6294 10.9602 21.6294 9.57714V6.18642" stroke="white" stroke-width="2" stroke-linecap="round"/>
<path d="M17.9336 23.5332V28.6667" stroke="white" stroke-width="2" stroke-linecap="round"/>
</svg>
