<svg width="30" height="30" viewBox="0 0 30 30" fill="none" xmlns="http://www.w3.org/2000/svg">
<g clip-path="url(#clip0_551_59844)">
<mask id="mask0_551_59844" style="mask-type:luminance" maskUnits="userSpaceOnUse" x="0" y="0" width="30" height="30">
<rect x="30" width="30" height="30" transform="rotate(90 30 0)" fill="white"/>
</mask>
<g mask="url(#mask0_551_59844)">
<path d="M9 12.416L15 18.416L21 12.416L19.584 11L15 15.608L10.416 11L9 12.416Z" fill="black"/>
</g>
</g>
<defs>
<clipPath id="clip0_551_59844">
<rect width="30" height="30" fill="white" transform="matrix(0 1 -1 0 30 0)"/>
</clipPath>
</defs>
</svg>
