<svg width="24" height="19" viewBox="0 0 24 19" fill="none" xmlns="http://www.w3.org/2000/svg">
<path fill-rule="evenodd" clip-rule="evenodd" d="M12 0.5C18.6274 0.5 24 6.08786 24 9.5C24 12.9121 18.6274 18.5 12 18.5C5.37258 18.5 0 12.9121 0 9.5C0 6.08786 5.37258 0.5 12 0.5ZM12.0001 2.50007C7.04844 2.50007 2.00012 6.73917 2.00012 9.50007C2.00012 12.261 7.04844 16.5001 12.0001 16.5001C16.9518 16.5001 22.0001 12.261 22.0001 9.50007C22.0001 6.73917 16.9518 2.50007 12.0001 2.50007ZM16 9.49988C16 7.29074 14.2091 5.49988 12 5.49988C9.79086 5.49988 8 7.29074 8 9.49988C8 11.709 9.79086 13.4999 12 13.4999C14.2091 13.4999 16 11.709 16 9.49988ZM10 9.49983C10 8.39526 10.8954 7.49983 12 7.49983C12.0284 7.49983 12.0566 7.50043 12.0847 7.5016C12.0298 7.65748 12 7.82515 12 7.9998C12 8.82823 12.6716 9.4998 13.5 9.4998C13.6747 9.4998 13.8423 9.46995 13.9982 9.41507C13.9994 9.44318 14 9.47144 14 9.49983C14 10.6044 13.1046 11.4998 12 11.4998C10.8954 11.4998 10 10.6044 10 9.49983Z" fill="black" fill-opacity="0.5"/>
<path d="M1.5 24L19 1" stroke="#808080" stroke-width="2" stroke-linecap="round"/>
</svg>
